Engine/Binaries/Win64/CrashReportClient.exe	2021-11-28T07:07:50.233Z
Engine/Binaries/Win64/turbojpeg.dll	2021-11-18T04:58:07.228Z
SOCIALMATRIX/Binaries/Win64/SOCIALMATRIX.exe	2021-11-28T07:23:09.527Z
SOCIALMATRIX/Binaries/Win64/turbojpeg.dll	2021-11-18T04:58:07.228Z
Engine/Extras/Redist/en-us/UE4PrereqSetup_x64.exe	2021-10-07T14:52:05.976Z
Engine/Binaries/ThirdParty/Oculus/Audio/Win64/ovraudio64.dll	2021-10-07T13:36:51.614Z
Engine/Binaries/ThirdParty/Oculus/OVRPlugin/OVRPlugin/Win64/OVRPlugin.dll	2021-11-18T04:58:02.645Z
Engine/Binaries/ThirdParty/DbgHelp/dbghelp.dll	2021-10-07T13:54:07.815Z
Engine/Binaries/ThirdParty/PhysX3/Win64/VS2015/PxFoundationPROFILE_x64.dll	2021-10-07T14:02:21.617Z
Engine/Binaries/ThirdParty/PhysX3/Win64/VS2015/PxPvdSDKPROFILE_x64.dll	2021-10-07T14:48:44.681Z
Engine/Binaries/ThirdParty/PhysX3/Win64/VS2015/PhysX3PROFILE_x64.dll	2021-10-07T13:53:23.001Z
Engine/Binaries/ThirdParty/PhysX3/Win64/VS2015/PhysX3CookingPROFILE_x64.dll	2021-10-07T13:53:29.758Z
Engine/Binaries/ThirdParty/PhysX3/Win64/VS2015/PhysX3CommonPROFILE_x64.dll	2021-10-07T13:40:17.060Z
Engine/Binaries/ThirdParty/PhysX3/Win64/VS2015/APEX_ClothingPROFILE_x64.dll	2021-10-07T14:52:55.423Z
Engine/Binaries/ThirdParty/PhysX3/Win64/VS2015/APEX_LegacyPROFILE_x64.dll	2021-10-07T14:26:17.749Z
Engine/Binaries/ThirdParty/PhysX3/Win64/VS2015/ApexFrameworkPROFILE_x64.dll	2021-10-07T13:50:08.674Z
Engine/Binaries/ThirdParty/PhysX3/Win64/VS2015/NvClothPROFILE_x64.dll	2021-10-07T13:53:29.298Z
Engine/Binaries/ThirdParty/Steamworks/Steamv147/Win64/steam_api64.dll	2021-10-07T13:26:41.550Z
Engine/Binaries/ThirdParty/OpenVR/OpenVRv1_5_17/Win64/openvr_api.dll	2021-10-07T13:25:35.827Z
Engine/Binaries/ThirdParty/NVIDIA/NVaftermath/Win64/GFSDK_Aftermath_Lib.x64.dll	2021-11-18T04:57:58.109Z
Engine/Binaries/ThirdParty/Ogg/Win64/VS2015/libogg_64.dll	2021-10-07T13:39:50.614Z
Engine/Binaries/ThirdParty/Vorbis/Win64/VS2015/libvorbis_64.dll	2021-10-07T14:32:17.958Z
Engine/Binaries/ThirdParty/Vorbis/Win64/VS2015/libvorbisfile_64.dll	2021-10-07T13:39:51.182Z
Engine/Binaries/ThirdParty/Windows/WinPixEventRuntime/x64/WinPixEventRuntime.dll	2021-10-07T13:12:28.296Z
Engine/Binaries/ThirdParty/Windows/XAudio2_9/x64/xaudio2_9redist.dll	2021-10-07T14:49:01.536Z
SOCIALMATRIX/Config/SteamVRBindings/gamepad.json	2021-11-26T23:43:29.917Z
SOCIALMATRIX/Config/SteamVRBindings/holographic_controller.json	2021-11-26T23:43:29.918Z
SOCIALMATRIX/Config/SteamVRBindings/indexhmd.json	2021-11-26T23:43:29.918Z
SOCIALMATRIX/Config/SteamVRBindings/knuckles.json	2021-11-26T23:43:29.918Z
SOCIALMATRIX/Config/SteamVRBindings/oculus_touch.json	2021-11-26T23:43:29.919Z
SOCIALMATRIX/Config/SteamVRBindings/rift.json	2021-11-26T23:43:29.919Z
SOCIALMATRIX/Config/SteamVRBindings/steamvr_manifest.json	2021-11-26T23:43:29.919Z
SOCIALMATRIX/Config/SteamVRBindings/vive.json	2021-11-26T23:43:29.919Z
SOCIALMATRIX/Config/SteamVRBindings/vive_controller.json	2021-11-26T23:43:29.920Z
SOCIALMATRIX/Config/SteamVRBindings/vive_cosmos_controller.json	2021-11-26T23:43:29.920Z
SOCIALMATRIX/Config/SteamVRBindings/vive_pro.json	2021-11-26T23:43:29.920Z
SOCIALMATRIX/Config/SteamVRBindings/vive_tracker_camera.json	2021-11-26T23:43:29.920Z
SOCIALMATRIX.exe	2021-11-28T07:23:36.094Z
